\select@language {english}
\contentsline {section}{\numberline {1}Vector Spaces}{1}{section.1}
\contentsline {subsection}{\numberline {1.1}Fields}{1}{subsection.1.1}
\contentsline {subsection}{\numberline {1.2}Vector Spaces}{2}{subsection.1.2}
\contentsline {subsection}{\numberline {1.3}Subspaces}{3}{subsection.1.3}
\contentsline {subsection}{\numberline {1.4}Linear Combinations}{4}{subsection.1.4}
\contentsline {subsection}{\numberline {1.5}Linear Dependence and Independence}{5}{subsection.1.5}
\contentsline {subsection}{\numberline {1.6}Span and Independence}{5}{subsection.1.6}
\contentsline {subsection}{\numberline {1.7}Theory of Bases}{5}{subsection.1.7}
\contentsline {subsubsection}{Replacement Theorem}{5}{section*.2}
\contentsline {subsubsection}{Every Vector Space has a Basis}{5}{section*.3}
\contentsline {subsubsection}{Lagrange Interpolation}{5}{section*.4}
\contentsline {section}{\numberline {2}Linear Transformations}{5}{section.2}
\contentsline {subsection}{\numberline {2.1}Rank and Nullity}{5}{subsection.2.1}
\contentsline {subsection}{\numberline {2.2}Isomorphism}{7}{subsection.2.2}
\contentsline {section}{\numberline {3}Matrices}{9}{section.3}
\contentsline {subsection}{\numberline {3.1}compositions}{13}{subsection.3.1}
\contentsline {subsection}{\numberline {3.2}Matrix Algebra}{14}{subsection.3.2}
\contentsline {subsection}{\numberline {3.3}Isomorphism}{15}{subsection.3.3}
\contentsline {subsection}{\numberline {3.4}Matrix Row Operation}{15}{subsection.3.4}
\contentsline {subsection}{\numberline {3.5}Solving Systems}{16}{subsection.3.5}
\contentsline {subsection}{\numberline {3.6}Determinants}{17}{subsection.3.6}
\contentsline {subsection}{\numberline {3.7}Determinant Fun}{19}{subsection.3.7}
\contentsline {subsection}{\numberline {3.8}Alternative Definition}{19}{subsection.3.8}
