\relax 
\providecommand\hyper@newdestlabel[2]{}
\providecommand\HyperFirstAtBeginDocument{\AtBeginDocument}
\HyperFirstAtBeginDocument{\ifx\hyper@anchor\@undefined
\global\let\oldcontentsline\contentsline
\gdef\contentsline#1#2#3#4{\oldcontentsline{#1}{#2}{#3}}
\global\let\oldnewlabel\newlabel
\gdef\newlabel#1#2{\newlabelxx{#1}#2}
\gdef\newlabelxx#1#2#3#4#5#6{\oldnewlabel{#1}{{#2}{#3}}}
\AtEndDocument{\ifx\hyper@anchor\@undefined
\let\contentsline\oldcontentsline
\let\newlabel\oldnewlabel
\fi}
\fi}
\global\let\hyper@last\relax 
\gdef\HyperFirstAtBeginDocument#1{#1}
\providecommand\HyField@AuxAddToFields[1]{}
\providecommand\HyField@AuxAddToCoFields[2]{}
\select@language{english}
\@writefile{toc}{\select@language{english}}
\@writefile{lof}{\select@language{english}}
\@writefile{lot}{\select@language{english}}
\@writefile{toc}{\contentsline {section}{\numberline {1}Vector Spaces}{1}{section.1}}
\@writefile{toc}{\contentsline {subsection}{\numberline {1.1}Fields}{1}{subsection.1.1}}
\newlabel{sub:Fields}{{1.1}{1}{Fields}{subsection.1.1}{}}
\newlabel{sub:Fields@cref}{{[subsection][1][1]1.1}{1}}
\@writefile{loe}{\contentsline {defn}{\numberline {1.1}Definition\thmtformatoptarg {Field}}{1}{defn.1.1}}
\newlabel{Field}{{1.1}{1}{Field}{defn.1.1}{}}
\newlabel{Field@cref}{{[defn][1][1]1.1}{1}}
\@writefile{loe}{\contentsline {thrm}{\numberline {1.1}Theorem}{1}{thrm.1.1}}
\@writefile{loe}{\contentsline {cor}{\numberline {1.1}Corollary\thmtformatoptarg {uniqueness of 0 and 1 for fields}}{2}{cor.1.1}}
\newlabel{Uniqueness of 0 and 1 for fields}{{1.1}{2}{uniqueness of 0 and 1 for fields}{cor.1.1}{}}
\newlabel{Uniqueness of 0 and 1 for fields@cref}{{[cor][1][1]1.1}{2}}
\@writefile{toc}{\contentsline {subsection}{\numberline {1.2}Vector Spaces}{2}{subsection.1.2}}
\newlabel{sub:Vector Spaces}{{1.2}{2}{Vector Spaces}{subsection.1.2}{}}
\newlabel{sub:Vector Spaces@cref}{{[subsection][2][1]1.2}{2}}
\@writefile{loe}{\contentsline {defn}{\numberline {1.2}Definition\thmtformatoptarg {Vector Space}}{2}{defn.1.2}}
\newlabel{Vector Space}{{1.2}{2}{Vector Space}{defn.1.2}{}}
\newlabel{Vector Space@cref}{{[defn][2][1]1.2}{2}}
\@writefile{loe}{\contentsline {exmp}{\numberline {1.1}Example}{2}{exmp.1.1}}
\@writefile{loe}{\contentsline {thrm}{\numberline {1.2}Theorem\thmtformatoptarg {Cancellation}}{2}{thrm.1.2}}
\newlabel{cancellation}{{1.2}{2}{Cancellation}{thrm.1.2}{}}
\newlabel{cancellation@cref}{{[thrm][2][1]1.2}{2}}
\@writefile{loe}{\contentsline {cor}{\numberline {1.2}Corollary}{3}{cor.1.2}}
\@writefile{loe}{\contentsline {thrm}{\numberline {1.3}Theorem}{3}{thrm.1.3}}
\@writefile{toc}{\contentsline {subsection}{\numberline {1.3}Subspaces}{3}{subsection.1.3}}
\newlabel{sub:Subspaces}{{1.3}{3}{Subspaces}{subsection.1.3}{}}
\newlabel{sub:Subspaces@cref}{{[subsection][3][1]1.3}{3}}
\@writefile{loe}{\contentsline {defn}{\numberline {1.3}Definition\thmtformatoptarg {Subspace}}{3}{defn.1.3}}
\newlabel{Subspace}{{1.3}{3}{Subspace}{defn.1.3}{}}
\newlabel{Subspace@cref}{{[defn][3][1]1.3}{3}}
\@writefile{loe}{\contentsline {thrm}{\numberline {1.4}Theorem}{3}{thrm.1.4}}
\@writefile{loe}{\contentsline {exmp}{\numberline {1.2}Example}{4}{exmp.1.2}}
\@writefile{loe}{\contentsline {thrm}{\numberline {1.5}Theorem}{4}{thrm.1.5}}
\@writefile{loe}{\contentsline {exmp}{\numberline {1.3}Example}{4}{exmp.1.3}}
\@writefile{toc}{\contentsline {subsection}{\numberline {1.4}Linear Combinations}{4}{subsection.1.4}}
\newlabel{sub:Linear Combinations}{{1.4}{4}{Linear Combinations}{subsection.1.4}{}}
\newlabel{sub:Linear Combinations@cref}{{[subsection][4][1]1.4}{4}}
\@writefile{loe}{\contentsline {defn}{\numberline {1.4}Definition\thmtformatoptarg {Linear Combination}}{4}{defn.1.4}}
\newlabel{Linear Combination}{{1.4}{4}{Linear Combination}{defn.1.4}{}}
\newlabel{Linear Combination@cref}{{[defn][4][1]1.4}{4}}
\@writefile{loe}{\contentsline {defn}{\numberline {1.5}Definition\thmtformatoptarg {Span}}{4}{defn.1.5}}
\newlabel{span}{{1.5}{4}{Span}{defn.1.5}{}}
\newlabel{span@cref}{{[defn][5][1]1.5}{4}}
\@writefile{toc}{\contentsline {subsection}{\numberline {1.5}Linear Dependence and Independence}{5}{subsection.1.5}}
\newlabel{sec:Linear Dependence and Independence}{{1.5}{5}{Linear Dependence and Independence}{subsection.1.5}{}}
\newlabel{sec:Linear Dependence and Independence@cref}{{[subsection][5][1]1.5}{5}}
\@writefile{toc}{\contentsline {subsection}{\numberline {1.6}Span and Independence}{5}{subsection.1.6}}
\newlabel{sec:Span and Independence}{{1.6}{5}{Span and Independence}{subsection.1.6}{}}
\newlabel{sec:Span and Independence@cref}{{[subsection][6][1]1.6}{5}}
\@writefile{toc}{\contentsline {subsection}{\numberline {1.7}Theory of Bases}{5}{subsection.1.7}}
\newlabel{sub:Theory of Bases}{{1.7}{5}{Theory of Bases}{subsection.1.7}{}}
\newlabel{sub:Theory of Bases@cref}{{[subsection][7][1]1.7}{5}}
\@writefile{toc}{\contentsline {subsubsection}{Replacement Theorem}{5}{section*.2}}
\newlabel{subs:Replacement Theorem}{{1.7}{5}{Replacement Theorem}{section*.2}{}}
\newlabel{subs:Replacement Theorem@cref}{{[subsection][7][1]1.7}{5}}
\@writefile{toc}{\contentsline {subsubsection}{Every Vector Space has a Basis}{5}{section*.3}}
\newlabel{subs:Every Vector Space has a Basis}{{1.7}{5}{Every Vector Space has a Basis}{section*.3}{}}
\newlabel{subs:Every Vector Space has a Basis@cref}{{[subsection][7][1]1.7}{5}}
\@writefile{toc}{\contentsline {subsubsection}{Lagrange Interpolation}{5}{section*.4}}
\newlabel{subs:Lagrange Interpolation}{{1.7}{5}{Lagrange Interpolation}{section*.4}{}}
\newlabel{subs:Lagrange Interpolation@cref}{{[subsection][7][1]1.7}{5}}
\@writefile{toc}{\contentsline {section}{\numberline {2}Linear Transformations}{5}{section.2}}
\@writefile{loe}{\contentsline {defn}{\numberline {2.1}Definition\thmtformatoptarg {Linear Transformation}}{5}{defn.2.1}}
\newlabel{linear transformation}{{2.1}{5}{Linear Transformation}{defn.2.1}{}}
\newlabel{linear transformation@cref}{{[defn][1][2]2.1}{5}}
\@writefile{toc}{\contentsline {subsection}{\numberline {2.1}Rank and Nullity}{5}{subsection.2.1}}
\newlabel{sub:Rank and Nullity}{{2.1}{5}{Rank and Nullity}{subsection.2.1}{}}
\newlabel{sub:Rank and Nullity@cref}{{[subsection][1][2]2.1}{5}}
\@writefile{loe}{\contentsline {defn}{\numberline {2.2}Definition\thmtformatoptarg {Null Space}}{5}{defn.2.2}}
\newlabel{Null Space}{{2.2}{5}{Null Space}{defn.2.2}{}}
\newlabel{Null Space@cref}{{[defn][2][2]2.2}{5}}
\@writefile{loe}{\contentsline {defn}{\numberline {2.3}Definition\thmtformatoptarg {Range}}{5}{defn.2.3}}
\newlabel{Range}{{2.3}{5}{Range}{defn.2.3}{}}
\newlabel{Range@cref}{{[defn][3][2]2.3}{5}}
\@writefile{loe}{\contentsline {thrm}{\numberline {2.1}Theorem}{5}{thrm.2.1}}
\@writefile{loe}{\contentsline {exmp}{\numberline {2.1}Example}{5}{exmp.2.1}}
\@writefile{loe}{\contentsline {thrm}{\numberline {2.2}Theorem}{6}{thrm.2.2}}
\@writefile{loe}{\contentsline {defn}{\numberline {2.4}Definition\thmtformatoptarg {Rank}}{6}{defn.2.4}}
\newlabel{rank}{{2.4}{6}{Rank}{defn.2.4}{}}
\newlabel{rank@cref}{{[defn][4][2]2.4}{6}}
\@writefile{loe}{\contentsline {defn}{\numberline {2.5}Definition\thmtformatoptarg {Nullity}}{6}{defn.2.5}}
\newlabel{nullity}{{2.5}{6}{Nullity}{defn.2.5}{}}
\newlabel{nullity@cref}{{[defn][5][2]2.5}{6}}
\@writefile{loe}{\contentsline {thrm}{\numberline {2.3}Theorem\thmtformatoptarg {Conservation of Dimension}}{6}{thrm.2.3}}
\newlabel{Conservation of Dimension}{{2.3}{6}{Conservation of Dimension}{thrm.2.3}{}}
\newlabel{Conservation of Dimension@cref}{{[thrm][3][2]2.3}{6}}
\@writefile{toc}{\contentsline {subsection}{\numberline {2.2}Isomorphism}{7}{subsection.2.2}}
\newlabel{sub:One to One and Onto}{{2.2}{7}{Isomorphism}{subsection.2.2}{}}
\newlabel{sub:One to One and Onto@cref}{{[subsection][2][2]2.2}{7}}
\@writefile{loe}{\contentsline {exmp}{\numberline {2.2}Example}{7}{exmp.2.2}}
\@writefile{loe}{\contentsline {exmp}{\numberline {2.3}Example}{7}{exmp.2.3}}
\@writefile{loe}{\contentsline {exmp}{\numberline {2.4}Example}{8}{exmp.2.4}}
\@writefile{loe}{\contentsline {thrm}{\numberline {2.4}Theorem}{8}{thrm.2.4}}
\@writefile{loe}{\contentsline {thrm}{\numberline {2.5}Theorem}{8}{thrm.2.5}}
\@writefile{loe}{\contentsline {defn}{\numberline {2.6}Definition\thmtformatoptarg {Isomorphism}}{9}{defn.2.6}}
\newlabel{isomorphism}{{2.6}{9}{Isomorphism}{defn.2.6}{}}
\newlabel{isomorphism@cref}{{[defn][6][2]2.6}{9}}
\@writefile{loe}{\contentsline {exmp}{\numberline {2.5}Example}{9}{exmp.2.5}}
\@writefile{toc}{\contentsline {section}{\numberline {3}Matrices}{9}{section.3}}
\newlabel{sec:Matrices}{{3}{9}{Matrices}{section.3}{}}
\newlabel{sec:Matrices@cref}{{[section][3][]3}{9}}
\@writefile{loe}{\contentsline {exmp}{\numberline {3.1}Example}{10}{exmp.3.1}}
\@writefile{loe}{\contentsline {note}{\numberline {\let \autodot \@empty }Note}{10}{thmt@dummyctr.dummy.33}}
\@writefile{loe}{\contentsline {exmp}{\numberline {3.2}Example}{10}{exmp.3.2}}
\@writefile{loe}{\contentsline {exmp}{\numberline {3.3}Example}{11}{exmp.3.3}}
\@writefile{loe}{\contentsline {exmp}{\numberline {3.4}Example}{12}{exmp.3.4}}
\@writefile{loe}{\contentsline {exmp}{\numberline {3.5}Example}{12}{exmp.3.5}}
\@writefile{toc}{\contentsline {subsection}{\numberline {3.1}compositions}{13}{subsection.3.1}}
\newlabel{sub:compositions}{{3.1}{13}{compositions}{subsection.3.1}{}}
\newlabel{sub:compositions@cref}{{[subsection][1][3]3.1}{13}}
\@writefile{loe}{\contentsline {exmp}{\numberline {3.6}Example}{13}{exmp.3.6}}
\@writefile{toc}{\contentsline {subsection}{\numberline {3.2}Matrix Algebra}{14}{subsection.3.2}}
\newlabel{sub:Matrix Algebra}{{3.2}{14}{Matrix Algebra}{subsection.3.2}{}}
\newlabel{sub:Matrix Algebra@cref}{{[subsection][2][3]3.2}{14}}
\@writefile{loe}{\contentsline {exmp}{\numberline {3.7}Example}{14}{exmp.3.7}}
\@writefile{toc}{\contentsline {subsection}{\numberline {3.3}Isomorphism}{15}{subsection.3.3}}
\newlabel{sub:Isomorphism}{{3.3}{15}{Isomorphism}{subsection.3.3}{}}
\newlabel{sub:Isomorphism@cref}{{[subsection][3][3]3.3}{15}}
\@writefile{loe}{\contentsline {exmp}{\numberline {3.8}Example}{15}{exmp.3.8}}
\@writefile{toc}{\contentsline {subsection}{\numberline {3.4}Matrix Row Operation}{15}{subsection.3.4}}
\newlabel{sub:Matrix Row Operations}{{3.4}{15}{Matrix Row Operation}{subsection.3.4}{}}
\newlabel{sub:Matrix Row Operations@cref}{{[subsection][4][3]3.4}{15}}
\@writefile{loe}{\contentsline {exmp}{\numberline {3.9}Example}{15}{exmp.3.9}}
\@writefile{loe}{\contentsline {defn}{\numberline {3.1}Definition\thmtformatoptarg {Matrix Rank}}{15}{defn.3.1}}
\newlabel{matrix rank}{{3.1}{15}{Matrix Rank}{defn.3.1}{}}
\newlabel{matrix rank@cref}{{[defn][1][3]3.1}{15}}
\@writefile{loe}{\contentsline {note}{\numberline {\let \autodot \@empty }Note}{16}{thmt@dummyctr.dummy.43}}
\@writefile{loe}{\contentsline {lem}{\numberline {3.1}Lemma}{16}{lem.3.1}}
\@writefile{loe}{\contentsline {lem}{\numberline {3.2}Lemma}{16}{lem.3.2}}
\@writefile{loe}{\contentsline {exmp}{\numberline {3.10}Example}{16}{exmp.3.10}}
\@writefile{loe}{\contentsline {cor}{\numberline {3.1}Corollary}{16}{cor.3.1}}
\@writefile{toc}{\contentsline {subsection}{\numberline {3.5}Solving Systems}{16}{subsection.3.5}}
\newlabel{sub:solving systems}{{3.5}{16}{Solving Systems}{subsection.3.5}{}}
\newlabel{sub:solving systems@cref}{{[subsection][5][3]3.5}{16}}
\@writefile{loe}{\contentsline {defn}{\numberline {3.2}Definition}{17}{defn.3.2}}
\@writefile{loe}{\contentsline {thrm}{\numberline {3.1}Theorem}{17}{thrm.3.1}}
\@writefile{toc}{\contentsline {subsection}{\numberline {3.6}Determinants}{17}{subsection.3.6}}
\newlabel{sub:Determinants}{{3.6}{17}{Determinants}{subsection.3.6}{}}
\newlabel{sub:Determinants@cref}{{[subsection][6][3]3.6}{17}}
\@writefile{loe}{\contentsline {defn}{\numberline {3.3}Definition}{17}{defn.3.3}}
\@writefile{loe}{\contentsline {thrm}{\numberline {3.2}Theorem}{17}{thrm.3.2}}
\@writefile{loe}{\contentsline {cor}{\numberline {3.2}Corollary}{18}{cor.3.2}}
\@writefile{loe}{\contentsline {thrm}{\numberline {3.3}Theorem}{18}{thrm.3.3}}
\@writefile{loe}{\contentsline {cor}{\numberline {3.3}Corollary}{18}{cor.3.3}}
\@writefile{loe}{\contentsline {thrm}{\numberline {3.4}Theorem}{18}{thrm.3.4}}
\@writefile{toc}{\contentsline {subsection}{\numberline {3.7}Determinant Fun}{19}{subsection.3.7}}
\newlabel{sub:Determinant Fun}{{3.7}{19}{Determinant Fun}{subsection.3.7}{}}
\newlabel{sub:Determinant Fun@cref}{{[subsection][7][3]3.7}{19}}
\@writefile{loe}{\contentsline {defn}{\numberline {3.4}Definition}{19}{defn.3.4}}
\@writefile{toc}{\contentsline {subsection}{\numberline {3.8}Alternative Definition}{19}{subsection.3.8}}
\newlabel{sub:Alternative Definition}{{3.8}{19}{Alternative Definition}{subsection.3.8}{}}
\newlabel{sub:Alternative Definition@cref}{{[subsection][8][3]3.8}{19}}
\@writefile{loe}{\contentsline {thrm}{\numberline {3.5}Theorem}{19}{thrm.3.5}}
