\relax 
\providecommand\hyper@newdestlabel[2]{}
\providecommand\HyperFirstAtBeginDocument{\AtBeginDocument}
\HyperFirstAtBeginDocument{\ifx\hyper@anchor\@undefined
\global\let\oldcontentsline\contentsline
\gdef\contentsline#1#2#3#4{\oldcontentsline{#1}{#2}{#3}}
\global\let\oldnewlabel\newlabel
\gdef\newlabel#1#2{\newlabelxx{#1}#2}
\gdef\newlabelxx#1#2#3#4#5#6{\oldnewlabel{#1}{{#2}{#3}}}
\AtEndDocument{\ifx\hyper@anchor\@undefined
\let\contentsline\oldcontentsline
\let\newlabel\oldnewlabel
\fi}
\fi}
\global\let\hyper@last\relax 
\gdef\HyperFirstAtBeginDocument#1{#1}
\providecommand\HyField@AuxAddToFields[1]{}
\providecommand\HyField@AuxAddToCoFields[2]{}
\select@language{english}
\@writefile{toc}{\select@language{english}}
\@writefile{lof}{\select@language{english}}
\@writefile{lot}{\select@language{english}}
\@writefile{toc}{\contentsline {section}{\numberline {1}Introduction}{1}{section.1}}
\newlabel{sec:introduction}{{1}{1}{Introduction}{section.1}{}}
\newlabel{sec:introduction@cref}{{[section][1][]1}{1}}
\@writefile{loe}{\contentsline {notation}{\numberline {1.1}Notation}{1}{notation.1.1}}
\@writefile{loe}{\contentsline {exmp}{\numberline {1.1}Example}{1}{exmp.1.1}}
\@writefile{loe}{\contentsline {exmp}{\numberline {1.2}Example}{2}{exmp.1.2}}
\@writefile{loe}{\contentsline {lem}{\numberline {1.1}Lemma}{2}{lem.1.1}}
\@writefile{loe}{\contentsline {defn}{\numberline {1.1}Definition\thmtformatoptarg {Similar}}{2}{defn.1.1}}
\@writefile{toc}{\contentsline {section}{\numberline {2}Eigenvectors}{2}{section.2}}
\newlabel{sec:Eigenvectors and Eigenvalues}{{2}{2}{Eigenvectors}{section.2}{}}
\newlabel{sec:Eigenvectors and Eigenvalues@cref}{{[section][2][]2}{2}}
\@writefile{loe}{\contentsline {defn}{\numberline {2.1}Definition\thmtformatoptarg {Eigenvector}}{2}{defn.2.1}}
\newlabel{eigenvector}{{2.1}{2}{Eigenvector}{defn.2.1}{}}
\newlabel{eigenvector@cref}{{[defn][1][2]2.1}{2}}
\@writefile{loe}{\contentsline {exmp}{\numberline {2.1}Example}{3}{exmp.2.1}}
\@writefile{loe}{\contentsline {exmp}{\numberline {2.2}Example}{3}{exmp.2.2}}
\@writefile{loe}{\contentsline {exmp}{\numberline {2.3}Example}{3}{exmp.2.3}}
\@writefile{loe}{\contentsline {solution}{\numberline {\let \autodot \@empty }Solution}{3}{thmt@dummyctr.dummy.10}}
\@writefile{loe}{\contentsline {thrm}{\numberline {2.1}Theorem}{3}{thrm.2.1}}
\@writefile{loe}{\contentsline {defn}{\numberline {2.2}Definition\thmtformatoptarg {Characteristic Polynomial}}{4}{defn.2.2}}
\newlabel{characteristic polynomial}{{2.2}{4}{Characteristic Polynomial}{defn.2.2}{}}
\newlabel{characteristic polynomial@cref}{{[defn][2][2]2.2}{4}}
\@writefile{loe}{\contentsline {exmp}{\numberline {2.4}Example}{4}{exmp.2.4}}
\@writefile{toc}{\contentsline {section}{\numberline {3}Diagonalization}{4}{section.3}}
\newlabel{sec:Diagonalization}{{3}{4}{Diagonalization}{section.3}{}}
\newlabel{sec:Diagonalization@cref}{{[section][3][]3}{4}}
\@writefile{loe}{\contentsline {thrm}{\numberline {3.1}Theorem}{4}{thrm.3.1}}
\@writefile{loe}{\contentsline {thrm}{\numberline {3.2}Theorem}{5}{thrm.3.2}}
\@writefile{loe}{\contentsline {thrm}{\numberline {3.3}Theorem}{5}{thrm.3.3}}
\@writefile{toc}{\contentsline {subsubsection}{Fibonnaci!}{5}{section*.2}}
\newlabel{subs:Fibonnaci!}{{3}{5}{Fibonnaci!}{section*.2}{}}
\newlabel{subs:Fibonnaci!@cref}{{[section][3][]3}{5}}
