\select@language {english}
\contentsline {section}{\numberline {1}Introduction}{1}{section.1}
\contentsline {section}{\numberline {2}Eigenvectors}{2}{section.2}
\contentsline {section}{\numberline {3}Diagonalization}{4}{section.3}
\contentsline {subsubsection}{Fibonnaci!}{5}{section*.2}
