# Fdb version 3
["makeindex notes.idx"] 1452547587 "notes.idx" "notes.ind" "notes" 1452547594
  "notes.idx" 1452547589 0 d41d8cd98f00b204e9800998ecf8427e ""
  (generated)
  "notes.ilg"
  "notes.ind"
["pdflatex"] 1452547589 "notes.tex" "notes.pdf" "notes" 1452547594
  "../../uoft.png" 1452546878 67820 857d5065a932b7a28e64e929b1f25446 ""
  "./notes.out" 1452547590 53 68c7ae2c82c7b55162988b77ece94864 ""
  "/usr/local/texlive/2015/texmf-dist/fonts/enc/dvips/cm-super/cm-super-t1.enc" 1136849721 2971 def0b6c1f0b107b3b936def894055589 ""
  "/usr/local/texlive/2015/texmf-dist/fonts/map/fontname/texfonts.map" 1272929888 3287 e6b82fe08f5336d4d5ebc73fb1152e87 ""
  "/usr/local/texlive/2015/texmf-dist/fonts/tfm/jknappen/ec/ecbx1000.tfm" 1136768653 3584 2d666ecf6d466d8b007246bc2f94d9da ""
  "/usr/local/texlive/2015/texmf-dist/fonts/tfm/jknappen/ec/ecbx1095.tfm" 1136768653 3584 21b378cca2e40816b0e6d74a4dc98f04 ""
  "/usr/local/texlive/2015/texmf-dist/fonts/tfm/jknappen/ec/ecbx1440.tfm" 1136768653 3584 13049b61b922a28b158a38aeff75ee9b ""
  "/usr/local/texlive/2015/texmf-dist/fonts/tfm/jknappen/ec/ecbx2488.tfm" 1136768653 3584 0181dbc4d429c3ba4e30feba37b5df96 ""
  "/usr/local/texlive/2015/texmf-dist/fonts/tfm/jknappen/ec/eccc1095.tfm" 1136768653 3072 1b1df026a15993ee98d265b49cf8d5f2 ""
  "/usr/local/texlive/2015/texmf-dist/fonts/tfm/jknappen/ec/eccc1200.tfm" 1136768653 3072 1e3dcc56ea731d0f3645bbefe8c8608c ""
  "/usr/local/texlive/2015/texmf-dist/fonts/tfm/jknappen/ec/ecrm0600.tfm" 1136768653 3584 291a5713401683441e0a8c8f4417b17b ""
  "/usr/local/texlive/2015/texmf-dist/fonts/tfm/jknappen/ec/ecrm0800.tfm" 1136768653 3584 49064b465390a8e316a3c8417a050403 ""
  "/usr/local/texlive/2015/texmf-dist/fonts/tfm/jknappen/ec/ecrm1000.tfm" 1136768653 3584 adb004a0c8e7c46ee66cad73671f37b4 ""
  "/usr/local/texlive/2015/texmf-dist/fonts/tfm/jknappen/ec/ecrm1095.tfm" 1136768653 3584 929cdff2b7a8c11bd4d49fd68cb0ae70 ""
  "/usr/local/texlive/2015/texmf-dist/fonts/tfm/jknappen/ec/ecrm1200.tfm" 1136768653 3584 f80ddd985bd00e29e9a6047ebd9d4781 ""
  "/usr/local/texlive/2015/texmf-dist/fonts/tfm/jknappen/ec/ecrm1440.tfm" 1136768653 3584 3169d30142b88a27d4ab0e3468e963a2 ""
  "/usr/local/texlive/2015/texmf-dist/fonts/tfm/jknappen/ec/ecrm2488.tfm" 1136768653 3584 406ad7b70d9a41f7833f92b6313150c8 ""
  "/usr/local/texlive/2015/texmf-dist/fonts/tfm/jknappen/ec/ecsl1095.tfm" 1136768653 3584 91bcd1ec8de84adb306899ddf050f500 ""
  "/usr/local/texlive/2015/texmf-dist/fonts/tfm/jknappen/ec/ecti1095.tfm" 1136768653 3072 b73d2778cc3af44970de4de5e032d7f6 ""
  "/usr/local/texlive/2015/texmf-dist/fonts/tfm/jknappen/ec/ectt1095.tfm" 1136768653 1536 a988bfe554c1f79514bd46d13c3c64ce ""
  "/usr/local/texlive/2015/texmf-dist/fonts/tfm/jknappen/ec/ecxc2488.tfm" 1136768653 3072 bed226f97a32eeca8e840082e205c6ac ""
  "/usr/local/texlive/2015/texmf-dist/fonts/tfm/public/amsfonts/cmextra/cmex7.tfm" 1246382020 1004 54797486969f23fa377b128694d548df ""
  "/usr/local/texlive/2015/texmf-dist/fonts/tfm/public/amsfonts/cmextra/cmex8.tfm" 1246382020 988 bdf658c3bfc2d96d3c8b02cfc1c94c20 ""
  "/usr/local/texlive/2015/texmf-dist/fonts/tfm/public/amsfonts/symbols/msam10.tfm" 1246382020 916 f87d7c45f9c908e672703b83b72241a3 ""
  "/usr/local/texlive/2015/texmf-dist/fonts/tfm/public/amsfonts/symbols/msam7.tfm" 1246382020 928 2dc8d444221b7a635bb58038579b861a ""
  "/usr/local/texlive/2015/texmf-dist/fonts/tfm/public/amsfonts/symbols/msbm10.tfm" 1246382020 908 2921f8a10601f252058503cc6570e581 ""
  "/usr/local/texlive/2015/texmf-dist/fonts/tfm/public/amsfonts/symbols/msbm7.tfm" 1246382020 940 228d6584342e91276bf566bcf9716b83 ""
  "/usr/local/texlive/2015/texmf-dist/fonts/tfm/public/cm/cmex10.tfm" 1136768653 992 662f679a0b3d2d53c1b94050fdaa3f50 ""
  "/usr/local/texlive/2015/texmf-dist/fonts/tfm/public/cm/cmmi10.tfm" 1136768653 1528 abec98dbc43e172678c11b3b9031252a ""
  "/usr/local/texlive/2015/texmf-dist/fonts/tfm/public/cm/cmmi6.tfm" 1136768653 1512 f21f83efb36853c0b70002322c1ab3ad ""
  "/usr/local/texlive/2015/texmf-dist/fonts/tfm/public/cm/cmmi8.tfm" 1136768653 1520 eccf95517727cb11801f4f1aee3a21b4 ""
  "/usr/local/texlive/2015/texmf-dist/fonts/tfm/public/cm/cmr10.tfm" 1136768653 1296 45809c5a464d5f32c8f98ba97c1bb47f ""
  "/usr/local/texlive/2015/texmf-dist/fonts/tfm/public/cm/cmr6.tfm" 1136768653 1300 b62933e007d01cfd073f79b963c01526 ""
  "/usr/local/texlive/2015/texmf-dist/fonts/tfm/public/cm/cmr8.tfm" 1136768653 1292 21c1c5bfeaebccffdb478fd231a0997d ""
  "/usr/local/texlive/2015/texmf-dist/fonts/tfm/public/cm/cmsy10.tfm" 1136768653 1124 6c73e740cf17375f03eec0ee63599741 ""
  "/usr/local/texlive/2015/texmf-dist/fonts/tfm/public/cm/cmsy6.tfm" 1136768653 1116 933a60c408fc0a863a92debe84b2d294 ""
  "/usr/local/texlive/2015/texmf-dist/fonts/tfm/public/cm/cmsy8.tfm" 1136768653 1120 8b7d695260f3cff42e636090a8002094 ""
  "/usr/local/texlive/2015/texmf-dist/fonts/tfm/public/latex-fonts/lasy6.tfm" 1136768653 520 4889cce2180234b97cad636b6039c722 ""
  "/usr/local/texlive/2015/texmf-dist/fonts/tfm/public/rsfs/rsfs10.tfm" 1229303445 688 37338d6ab346c2f1466b29e195316aa4 ""
  "/usr/local/texlive/2015/texmf-dist/fonts/tfm/public/rsfs/rsfs5.tfm" 1229303445 684 3a51bd4fd9600428d5264cf25f04bb9a ""
  "/usr/local/texlive/2015/texmf-dist/fonts/type1/public/amsfonts/cm/cmmi10.pfb" 1248133631 36299 5f9df58c2139e7edcf37c8fca4bd384d ""
  "/usr/local/texlive/2015/texmf-dist/fonts/type1/public/amsfonts/cm/cmr10.pfb" 1248133631 35752 024fb6c41858982481f6968b5fc26508 ""
  "/usr/local/texlive/2015/texmf-dist/fonts/type1/public/amsfonts/cm/cmsy10.pfb" 1248133631 32569 5e5ddc8df908dea60932f3c484a54c0d ""
  "/usr/local/texlive/2015/texmf-dist/fonts/type1/public/amsfonts/cm/cmsy8.pfb" 1248133631 32626 4f5c1b83753b1dd3a97d1b399a005b4b ""
  "/usr/local/texlive/2015/texmf-dist/fonts/type1/public/cm-super/sfbx1000.pfb" 1215737283 145408 43d44302ca7d82d487f511f83e309505 ""
  "/usr/local/texlive/2015/texmf-dist/fonts/type1/public/cm-super/sfbx1095.pfb" 1215737283 154600 ea54091d31de803b613ba9e80ca51709 ""
  "/usr/local/texlive/2015/texmf-dist/fonts/type1/public/cm-super/sfbx1440.pfb" 1215737283 135942 859a90cad7494a1e79c94baf546d7de5 ""
  "/usr/local/texlive/2015/texmf-dist/fonts/type1/public/cm-super/sfcc1095.pfb" 1215737283 118110 8476623e969cc771939ade7a737ae636 ""
  "/usr/local/texlive/2015/texmf-dist/fonts/type1/public/cm-super/sfcc1200.pfb" 1215737283 108594 1a08a22405bc37650b977f219cc3597d ""
  "/usr/local/texlive/2015/texmf-dist/fonts/type1/public/cm-super/sfrm1000.pfb" 1215737283 138258 6525c253f16cededa14c7fd0da7f67b2 ""
  "/usr/local/texlive/2015/texmf-dist/fonts/type1/public/cm-super/sfrm1095.pfb" 1215737283 145929 f25e56369a345c4ff583b067cd87ce8e ""
  "/usr/local/texlive/2015/texmf-dist/fonts/type1/public/cm-super/sfsl1095.pfb" 1215737283 158320 b2e637419eb81344af310d8483cced13 ""
  "/usr/local/texlive/2015/texmf-dist/fonts/type1/public/cm-super/sfti1095.pfb" 1215737283 196446 8fbbe4b97b83e5182def6d29a44e57fb ""
  "/usr/local/texlive/2015/texmf-dist/fonts/type1/public/cm-super/sftt1095.pfb" 1215737283 169670 48d12e69c9a3b23c81f6d703ccbd4554 ""
  "/usr/local/texlive/2015/texmf-dist/fonts/type1/public/cm-super/sfxc2488.pfb" 1215737283 115470 5a4c8e877500939b73a813952213a627 ""
  "/usr/local/texlive/2015/texmf-dist/tex/context/base/supp-pdf.mkii" 1337017135 71627 94eb9990bed73c364d7f53f960cc8c5b ""
  "/usr/local/texlive/2015/texmf-dist/tex/generic/babel-english/english.ldf" 1367878877 6963 2e0cb3d93aa64508bdb0db58ae900d97 ""
  "/usr/local/texlive/2015/texmf-dist/tex/generic/babel/babel.def" 1411763270 49725 b40154b767b0073ee42b35911042b793 ""
  "/usr/local/texlive/2015/texmf-dist/tex/generic/babel/babel.sty" 1411763270 13212 dc56c11a26f3ea97bcf005eeda274583 ""
  "/usr/local/texlive/2015/texmf-dist/tex/generic/ifxetex/ifxetex.sty" 1284331290 1458 43ab4710dc82f3edeabecd0d099626b2 ""
  "/usr/local/texlive/2015/texmf-dist/tex/generic/oberdiek/etexcmds.sty" 1335995445 7612 c47308d923ec19888707b0f1792b326a ""
  "/usr/local/texlive/2015/texmf-dist/tex/generic/oberdiek/gettitlestring.sty" 1303254447 8237 52810bdb4db2270e717422560a104aea ""
  "/usr/local/texlive/2015/texmf-dist/tex/generic/oberdiek/hobsub-generic.sty" 1338332114 189108 8b3553a56c83ff61acecb36b75d817e2 ""
  "/usr/local/texlive/2015/texmf-dist/tex/generic/oberdiek/hobsub-hyperref.sty" 1338332114 70752 45fa392800e07da61fa13446ad46b34d ""
  "/usr/local/texlive/2015/texmf-dist/tex/generic/oberdiek/ifluatex.sty" 1303254447 7324 11d14f318d865f420e692d4e6c9c18c3 ""
  "/usr/local/texlive/2015/texmf-dist/tex/generic/oberdiek/ifpdf.sty" 1303254447 7140 ece2cc23d9f20e1f53975ac167f42d3e ""
  "/usr/local/texlive/2015/texmf-dist/tex/generic/oberdiek/ifvtex.sty" 1335995445 6797 68c89f65e01894df882dd523d3fc0a8f ""
  "/usr/local/texlive/2015/texmf-dist/tex/generic/oberdiek/infwarerr.sty" 1335995445 8253 3bdedc8409aa5d290a2339be6f09af03 ""
  "/usr/local/texlive/2015/texmf-dist/tex/generic/oberdiek/kvsetkeys.sty" 1335995445 14040 8de9f47fabc4ca3bd69b6d795e32751c ""
  "/usr/local/texlive/2015/texmf-dist/tex/generic/oberdiek/ltxcmds.sty" 1335995445 18425 775b341047ce304520cc7c11ca41392e ""
  "/usr/local/texlive/2015/texmf-dist/tex/generic/pgf/basiclayer/pgfcore.code.tex" 1288312291 1006 b103be0bfc8c1682ff1fa9760697a329 ""
  "/usr/local/texlive/2015/texmf-dist/tex/generic/pgf/basiclayer/pgfcorearrows.code.tex" 1393459310 42678 ea82fd948b4303ce6a2c8e25d5e8f8aa ""
  "/usr/local/texlive/2015/texmf-dist/tex/generic/pgf/basiclayer/pgfcoreexternal.code.tex" 1393459310 19287 b2041c22301def2360f03c004d16068d ""
  "/usr/local/texlive/2015/texmf-dist/tex/generic/pgf/basiclayer/pgfcoregraphicstate.code.tex" 1393459310 6653 6c617c4a5106d9f40e3d70946ba4e0ac ""
  "/usr/local/texlive/2015/texmf-dist/tex/generic/pgf/basiclayer/pgfcoreimage.code.tex" 1393459310 7041 a891ad72049e17c4e366c40ca37b0ccb ""
  "/usr/local/texlive/2015/texmf-dist/tex/generic/pgf/basiclayer/pgfcorelayers.code.tex" 1393459310 4625 40c07e9f6f2f7c674704b3f2055560ce ""
  "/usr/local/texlive/2015/texmf-dist/tex/generic/pgf/basiclayer/pgfcoreobjects.code.tex" 1203877327 2631 7eefa6cdbefd8d4e2bad7262cf1094cd ""
  "/usr/local/texlive/2015/texmf-dist/tex/generic/pgf/basiclayer/pgfcorepathconstruct.code.tex" 1393459310 43477 81143b33d9ebafdeead07ede13372427 ""
  "/usr/local/texlive/2015/texmf-dist/tex/generic/pgf/basiclayer/pgfcorepathprocessing.code.tex" 1393459310 17436 8d99d4113be311daf23deff86991ee7d ""
  "/usr/local/texlive/2015/texmf-dist/tex/generic/pgf/basiclayer/pgfcorepathusage.code.tex" 1393459310 20857 256da99fc70ea570aad1d50fdfd51464 ""
  "/usr/local/texlive/2015/texmf-dist/tex/generic/pgf/basiclayer/pgfcorepatterns.code.tex" 1393459310 9641 711f0edc22c180a5caf168b6e8970057 ""
  "/usr/local/texlive/2015/texmf-dist/tex/generic/pgf/basiclayer/pgfcorepoints.code.tex" 1393459310 34516 658a71478d21df554bce9d9cd436203a ""
  "/usr/local/texlive/2015/texmf-dist/tex/generic/pgf/basiclayer/pgfcorequick.code.tex" 1288312291 3052 e5672c657232fd63b0a9853b0746297c ""
  "/usr/local/texlive/2015/texmf-dist/tex/generic/pgf/basiclayer/pgfcorescopes.code.tex" 1393459310 16849 86fed972a2b3ad61208a6422e104bf26 ""
  "/usr/local/texlive/2015/texmf-dist/tex/generic/pgf/basiclayer/pgfcoreshade.code.tex" 1393459310 21541 4cd19f8ff7dd74d5aa7d803a6397af84 ""
  "/usr/local/texlive/2015/texmf-dist/tex/generic/pgf/basiclayer/pgfcoretransformations.code.tex" 1393459310 17423 a0f09c822b83b65445bc3ac25542dcc6 ""
  "/usr/local/texlive/2015/texmf-dist/tex/generic/pgf/basiclayer/pgfcoretransparency.code.tex" 1393459310 8943 2e2495b057f8f0035b5568394d489963 ""
  "/usr/local/texlive/2015/texmf-dist/tex/generic/pgf/frontendlayer/tikz/libraries/tikzlibrarytopaths.code.tex" 1288312291 11599 d694704a88e2f9007c996d3a6a4d629c ""
  "/usr/local/texlive/2015/texmf-dist/tex/generic/pgf/frontendlayer/tikz/tikz.code.tex" 1393459310 175287 31eb66e838dd5e10589736193a31943c ""
  "/usr/local/texlive/2015/texmf-dist/tex/generic/pgf/libraries/pgflibraryplothandlers.code.tex" 1393459310 32969 dbcfd5a7de6a0f7255c333ef60287d59 ""
  "/usr/local/texlive/2015/texmf-dist/tex/generic/pgf/math/pgfmath.code.tex" 1393459310 454 9e9e7c99f4da4f41698be21eaef4938e ""
  "/usr/local/texlive/2015/texmf-dist/tex/generic/pgf/math/pgfmathcalc.code.tex" 1393459310 13416 940ea6971d7a65dc440d3479939c66ae ""
  "/usr/local/texlive/2015/texmf-dist/tex/generic/pgf/math/pgfmathfloat.code.tex" 1393459310 91879 5b3cc8d94c47a5b742393a410f298724 ""
  "/usr/local/texlive/2015/texmf-dist/tex/generic/pgf/math/pgfmathfunctions.base.code.tex" 1393459310 9375 5adc70f722abd29fc250d59e0694b548 ""
  "/usr/local/texlive/2015/texmf-dist/tex/generic/pgf/math/pgfmathfunctions.basic.code.tex" 1393459310 21406 80daebd1f9f6a174d8dc77c5bc931bf4 ""
  "/usr/local/texlive/2015/texmf-dist/tex/generic/pgf/math/pgfmathfunctions.code.tex" 1393459310 7820 5140d142921f39003e02ccedd072823a ""
  "/usr/local/texlive/2015/texmf-dist/tex/generic/pgf/math/pgfmathfunctions.comparison.code.tex" 1288312291 3534 c7f28fbac13616513e513efe93b8569b ""
  "/usr/local/texlive/2015/texmf-dist/tex/generic/pgf/math/pgfmathfunctions.integerarithmetics.code.tex" 1393459310 3167 7c9394e79aac27db96a92f9b2792b858 ""
  "/usr/local/texlive/2015/texmf-dist/tex/generic/pgf/math/pgfmathfunctions.misc.code.tex" 1393459310 9165 99b6966558714c44c0b5ee44ae261ffc ""
  "/usr/local/texlive/2015/texmf-dist/tex/generic/pgf/math/pgfmathfunctions.random.code.tex" 1288312291 6964 d4b5e82dabddda1c728063bb9c8a22ba ""
  "/usr/local/texlive/2015/texmf-dist/tex/generic/pgf/math/pgfmathfunctions.round.code.tex" 1288312291 2688 139c6abc86761a6190c2f4bef5d752be ""
  "/usr/local/texlive/2015/texmf-dist/tex/generic/pgf/math/pgfmathfunctions.trigonometric.code.tex" 1393459310 91075 1c1d7a7e8f0f737f72aa8becf0b37136 ""
  "/usr/local/texlive/2015/texmf-dist/tex/generic/pgf/math/pgfmathparser.code.tex" 1393459310 33289 b041d55e91f7382603e2dca6f9ad188d ""
  "/usr/local/texlive/2015/texmf-dist/tex/generic/pgf/math/pgfmathutil.code.tex" 1393459310 7099 f44d505bae6c7c2b933cdd63441db4b9 ""
  "/usr/local/texlive/2015/texmf-dist/tex/generic/pgf/modules/pgfmodulematrix.code.tex" 1393459310 20934 2328bd2e04520e1ab077ac4ee13b8935 ""
  "/usr/local/texlive/2015/texmf-dist/tex/generic/pgf/modules/pgfmoduleplot.code.tex" 1393459310 15785 e0b14c447df00370d2023fd5c9813190 ""
  "/usr/local/texlive/2015/texmf-dist/tex/generic/pgf/modules/pgfmoduleshapes.code.tex" 1393459310 42336 b13cf09dc317c76a2b165a8501d871cf ""
  "/usr/local/texlive/2015/texmf-dist/tex/generic/pgf/systemlayer/pgf.cfg" 1288312291 978 15af626ebd3d4d790aac19170dac04f2 ""
  "/usr/local/texlive/2015/texmf-dist/tex/generic/pgf/systemlayer/pgfsys-common-pdf.def" 1393459310 5437 d91f93ed61ecdc57e119849b2d784a0b ""
  "/usr/local/texlive/2015/texmf-dist/tex/generic/pgf/systemlayer/pgfsys-pdftex.def" 1393459310 11969 518d66d5b5e20471ba00709ef9c2b267 ""
  "/usr/local/texlive/2015/texmf-dist/tex/generic/pgf/systemlayer/pgfsys.code.tex" 1393459310 34488 3bab2022cdd1acab0cd383d8a0ad641b ""
  "/usr/local/texlive/2015/texmf-dist/tex/generic/pgf/systemlayer/pgfsysprotocol.code.tex" 1203877327 1983 b5994ebbcee17f1ba3d29bb1bd696fcf ""
  "/usr/local/texlive/2015/texmf-dist/tex/generic/pgf/systemlayer/pgfsyssoftpath.code.tex" 1393459310 7881 d459d6057e13d10ce7a227ae44b7295e ""
  "/usr/local/texlive/2015/texmf-dist/tex/generic/pgf/utilities/pgffor.code.tex" 1393459310 22211 d696ef78c12269178882d218b2cf191d ""
  "/usr/local/texlive/2015/texmf-dist/tex/generic/pgf/utilities/pgfkeys.code.tex" 1393459310 36194 e194ef4e0b396b531a3891feb4b1cc22 ""
  "/usr/local/texlive/2015/texmf-dist/tex/generic/pgf/utilities/pgfkeysfiltered.code.tex" 1393459310 33377 af391d6ad1bfcbe2278e191f48e43ba8 ""
  "/usr/local/texlive/2015/texmf-dist/tex/generic/pgf/utilities/pgfrcs.code.tex" 1393459310 2286 b5c392d27790ca52b8f8e510ef5044e0 ""
  "/usr/local/texlive/2015/texmf-dist/tex/generic/pgf/utilities/pgfutil-common-lists.tex" 1393459310 6833 114eda2cf1d348e0e7e477a1a4dc1941 ""
  "/usr/local/texlive/2015/texmf-dist/tex/generic/pgf/utilities/pgfutil-common.tex" 1393459310 16384 3fa06861c9a3391a75df39466f49655f ""
  "/usr/local/texlive/2015/texmf-dist/tex/generic/pgf/utilities/pgfutil-latex.def" 1393459310 4500 b148f531c7670d59c695787be06a508b ""
  "/usr/local/texlive/2015/texmf-dist/tex/generic/ulem/ulem.sty" 1338588421 23756 854c01b779030ff5b2aad88ba7a119f2 ""
  "/usr/local/texlive/2015/texmf-dist/tex/latex/amscls/amsthm.sty" 1428861406 12225 3cca0d18522255979a1047206228b9d0 ""
  "/usr/local/texlive/2015/texmf-dist/tex/latex/amsfonts/amsfonts.sty" 1359763108 5949 3f3fd50a8cc94c3d4cbf4fc66cd3df1c ""
  "/usr/local/texlive/2015/texmf-dist/tex/latex/amsfonts/amssymb.sty" 1359763108 13829 94730e64147574077f8ecfea9bb69af4 ""
  "/usr/local/texlive/2015/texmf-dist/tex/latex/amsfonts/umsa.fd" 1359763108 961 6518c6525a34feb5e8250ffa91731cff ""
  "/usr/local/texlive/2015/texmf-dist/tex/latex/amsfonts/umsb.fd" 1359763108 961 d02606146ba5601b5645f987c92e6193 ""
  "/usr/local/texlive/2015/texmf-dist/tex/latex/amsmath/amsbsy.sty" 1362954379 2412 2d98314dc5be38f455f8890deeb2d091 ""
  "/usr/local/texlive/2015/texmf-dist/tex/latex/amsmath/amsgen.sty" 1362954379 4357 ad30ad08920902fc9b38caf35a3b0496 ""
  "/usr/local/texlive/2015/texmf-dist/tex/latex/amsmath/amsmath.sty" 1362954379 79178 b2e326c351e876df0e5e23df2e02441b ""
  "/usr/local/texlive/2015/texmf-dist/tex/latex/amsmath/amsopn.sty" 1362954379 4082 502152465aedb8f6a3c4b0b7c0fa8ae5 ""
  "/usr/local/texlive/2015/texmf-dist/tex/latex/amsmath/amstext.sty" 1362954379 2637 846ebe982d3549c7ede7ce135456f54a ""
  "/usr/local/texlive/2015/texmf-dist/tex/latex/base/article.cls" 1428932888 20708 96f8bca6e380179cada1d49716376167 ""
  "/usr/local/texlive/2015/texmf-dist/tex/latex/base/fontenc.sty" 1428932888 4572 f29f75cfae3acaf4667f1979db655af9 ""
  "/usr/local/texlive/2015/texmf-dist/tex/latex/base/inputenc.sty" 1428932888 5619 3f48adceb9004b3fefe24c2d2df7d98e ""
  "/usr/local/texlive/2015/texmf-dist/tex/latex/base/latin9.def" 1428932888 6211 9cd7dac6c90a414c63610f666764d547 ""
  "/usr/local/texlive/2015/texmf-dist/tex/latex/base/makeidx.sty" 1428932888 1940 d6de0410d9ab8e197c80422e5314e9da ""
  "/usr/local/texlive/2015/texmf-dist/tex/latex/base/size11.clo" 1428932888 9195 b429d9ae04d88356fbd16a7b811e600f ""
  "/usr/local/texlive/2015/texmf-dist/tex/latex/base/t1cmtt.fd" 1428932888 2230 8532e244c49c4b3887eb2868e2f1cda3 ""
  "/usr/local/texlive/2015/texmf-dist/tex/latex/base/t1enc.def" 1428932888 9327 bf6addf718ff386725227c5b52941e7e ""
  "/usr/local/texlive/2015/texmf-dist/tex/latex/caption/caption.sty" 1368312746 65148 c61accbd2b9a5316d9be0887ec48d722 ""
  "/usr/local/texlive/2015/texmf-dist/tex/latex/caption/caption3.sty" 1368312746 62748 b02c0dc118f5f35146d37cec569e83b1 ""
  "/usr/local/texlive/2015/texmf-dist/tex/latex/carlisle/remreset.sty" 1137109962 1096 6a75275ca00e32428c6f059d2f618ea7 ""
  "/usr/local/texlive/2015/texmf-dist/tex/latex/cleveref/cleveref.sty" 1388446545 339711 1f0025fb7b81e674af7c859d9d323705 ""
  "/usr/local/texlive/2015/texmf-dist/tex/latex/fancyhdr/fancyhdr.sty" 1160175134 20521 e5d13d98d57bd53d4fed3aa61bd29c86 ""
  "/usr/local/texlive/2015/texmf-dist/tex/latex/geometry/geometry.sty" 1284422013 40502 e003406220954b0716679d7928aedd8a ""
  "/usr/local/texlive/2015/texmf-dist/tex/latex/graphics/graphics.sty" 1428932888 14285 20d80486c4ae98139889d8789596c967 ""
  "/usr/local/texlive/2015/texmf-dist/tex/latex/graphics/graphicx.sty" 1428932888 8125 557ab9f1bfa80d369fb45a914aa8a3b4 ""
  "/usr/local/texlive/2015/texmf-dist/tex/latex/graphics/keyval.sty" 1428932888 2594 d18d5e19aa8239cf867fa670c556d2e9 ""
  "/usr/local/texlive/2015/texmf-dist/tex/latex/graphics/trig.sty" 1428932888 3439 44bd4a1da7f27787173f2e99116b0a7f ""
  "/usr/local/texlive/2015/texmf-dist/tex/latex/hyperref/hpdftex.def" 1352416072 51837 247bd8424b3835ef78c236dc1e0b4aef ""
  "/usr/local/texlive/2015/texmf-dist/tex/latex/hyperref/hyperref.sty" 1352416072 231792 5fc9dc7dd667e773a766ecc63bba7f4b ""
  "/usr/local/texlive/2015/texmf-dist/tex/latex/hyperref/nameref.sty" 1351899753 12847 25b617d63258c4f72870c883493a3cf8 ""
  "/usr/local/texlive/2015/texmf-dist/tex/latex/hyperref/pd1enc.def" 1352416072 14005 155ac8fad2e5dd7c2cdd130fabd96633 ""
  "/usr/local/texlive/2015/texmf-dist/tex/latex/jknapltx/mathrsfs.sty" 1137110241 300 12fa6f636b617656f2810ee82cb05015 ""
  "/usr/local/texlive/2015/texmf-dist/tex/latex/jknapltx/ursfs.fd" 1137110241 548 cc4e3557704bfed27c7002773fad6c90 ""
  "/usr/local/texlive/2015/texmf-dist/tex/latex/latexconfig/color.cfg" 1254097189 802 7b8c8d72c24d795ed7720e4dfd29bff3 ""
  "/usr/local/texlive/2015/texmf-dist/tex/latex/latexconfig/epstopdf-sys.cfg" 1279039959 678 4792914a8f45be57bb98413425e4c7af ""
  "/usr/local/texlive/2015/texmf-dist/tex/latex/latexconfig/graphics.cfg" 1278958963 3563 d35e897cae3b8c6848f6677b73370b54 ""
  "/usr/local/texlive/2015/texmf-dist/tex/latex/latexconfig/hyperref.cfg" 1254097189 235 6031e5765137be07eed51a510b2b8fb7 ""
  "/usr/local/texlive/2015/texmf-dist/tex/latex/listings/listings.cfg" 1410123741 1828 ddc16c1fe1b992198f2f6db76c7605a1 ""
  "/usr/local/texlive/2015/texmf-dist/tex/latex/listings/listings.sty" 1410123741 80361 986ecfb58a31c7520247f2b2ead09587 ""
  "/usr/local/texlive/2015/texmf-dist/tex/latex/listings/lstlang1.sty" 1410123741 93444 0138f333d6d5318ba4266bb8d4ee3643 ""
  "/usr/local/texlive/2015/texmf-dist/tex/latex/listings/lstmisc.sty" 1410123741 77029 f4782a67dce3ceeb4067191b5488d81d ""
  "/usr/local/texlive/2015/texmf-dist/tex/latex/microtype/microtype-pdftex.def" 1369617620 48788 102de9fe36ddc0fb46fd6734b1f3e8fb ""
  "/usr/local/texlive/2015/texmf-dist/tex/latex/microtype/microtype.cfg" 1369617620 23086 f25ab3218b2c6f172ac44dbf381961e1 ""
  "/usr/local/texlive/2015/texmf-dist/tex/latex/microtype/microtype.sty" 1369617620 68045 fe140a1fc105016163d67aadd9efe194 ""
  "/usr/local/texlive/2015/texmf-dist/tex/latex/microtype/mt-cmr.cfg" 1369617620 22870 325932b16ad70b85d54e89a202d41e4e ""
  "/usr/local/texlive/2015/texmf-dist/tex/latex/microtype/mt-msa.cfg" 1369617620 5894 a699e762642ac16b337d6067aaf54745 ""
  "/usr/local/texlive/2015/texmf-dist/tex/latex/microtype/mt-msb.cfg" 1369617620 5559 1c6d4ff49366e01a7e25eb35b4526685 ""
  "/usr/local/texlive/2015/texmf-dist/tex/latex/ms/everyshi.sty" 1177890616 3878 6aa7c08ff2621006e0603349e40a30a8 ""
  "/usr/local/texlive/2015/texmf-dist/tex/latex/oberdiek/auxhook.sty" 1303254447 3834 707ef09f31d7d2ea47ba89974755dfe0 ""
  "/usr/local/texlive/2015/texmf-dist/tex/latex/oberdiek/epstopdf-base.sty" 1303254447 12029 04d7fdf76e0464c23b5aa3a727952d7c ""
  "/usr/local/texlive/2015/texmf-dist/tex/latex/oberdiek/grfext.sty" 1335995445 7075 bd0c34fbf1ae8fd1debd2a554e41b2d5 ""
  "/usr/local/texlive/2015/texmf-dist/tex/latex/oberdiek/kvoptions.sty" 1335995445 22417 c74ff4af6a1aa2b65d1924020edbbe11 ""
  "/usr/local/texlive/2015/texmf-dist/tex/latex/oberdiek/refcount.sty" 1335995445 9750 2b74db94c22b6c3d9118c296e3660ecc ""
  "/usr/local/texlive/2015/texmf-dist/tex/latex/oberdiek/rerunfilecheck.sty" 1303254447 9581 1158efc648bc09d5064db5703c882159 ""
  "/usr/local/texlive/2015/texmf-dist/tex/latex/pdftex-def/pdftex.def" 1306616590 55368 3c8a0d99822330f2dfabc0dfb09ce897 ""
  "/usr/local/texlive/2015/texmf-dist/tex/latex/pgf/basiclayer/pgf.sty" 1393459310 1190 4e20f1d26da9f86ba6a50d7ad16c48d2 ""
  "/usr/local/texlive/2015/texmf-dist/tex/latex/pgf/basiclayer/pgfcore.sty" 1288312291 410 5bf12ea7330e5f12c445332a4fe9a263 ""
  "/usr/local/texlive/2015/texmf-dist/tex/latex/pgf/compatibility/pgfcomp-version-0-65.sty" 1203877327 21115 facf03b7dbe5ea2f5f1dce1ac84b5d05 ""
  "/usr/local/texlive/2015/texmf-dist/tex/latex/pgf/compatibility/pgfcomp-version-1-18.sty" 1203727794 1091 d9163d29def82ee90370c8a63667742c ""
  "/usr/local/texlive/2015/texmf-dist/tex/latex/pgf/frontendlayer/tikz.sty" 1203877327 339 592cf35cba3d400082b8a9a5d0199d70 ""
  "/usr/local/texlive/2015/texmf-dist/tex/latex/pgf/math/pgfmath.sty" 1393459310 306 0796eafca5e159e6ec2167a6d22d81b1 ""
  "/usr/local/texlive/2015/texmf-dist/tex/latex/pgf/systemlayer/pgfsys.sty" 1393459310 443 0b2e781830192df35c0fd357cf13e26e ""
  "/usr/local/texlive/2015/texmf-dist/tex/latex/pgf/utilities/pgffor.sty" 1393459310 348 8927fde343487e003b01a4c2ca34073b ""
  "/usr/local/texlive/2015/texmf-dist/tex/latex/pgf/utilities/pgfkeys.sty" 1203727794 274 4cad6e665cc93ac2ac979039a94fa1e1 ""
  "/usr/local/texlive/2015/texmf-dist/tex/latex/pgf/utilities/pgfrcs.sty" 1203877327 325 2bcd023400636339210573e2b3ee298b ""
  "/usr/local/texlive/2015/texmf-dist/tex/latex/setspace/setspace.sty" 1324344192 22913 a27d7908fc6f0385466454a966a316eb ""
  "/usr/local/texlive/2015/texmf-dist/tex/latex/thmtools/aliasctr.sty" 1398201367 2126 2cc07ee76e7a3e97dd5f9317ac6d5397 ""
  "/usr/local/texlive/2015/texmf-dist/tex/latex/thmtools/parseargs.sty" 1398201367 1611 f9ccd1aa1ba48132a932f0fcdcc546a2 ""
  "/usr/local/texlive/2015/texmf-dist/tex/latex/thmtools/thm-amsthm.sty" 1398201367 4597 55cd6f16a7181d07034dd6e94cb7891e ""
  "/usr/local/texlive/2015/texmf-dist/tex/latex/thmtools/thm-autoref.sty" 1398201367 3176 b7ad6d01254059771ff0a099609ada18 ""
  "/usr/local/texlive/2015/texmf-dist/tex/latex/thmtools/thm-kv.sty" 1398201367 12882 9ff8001b8a95d6a687b2f975d9e22b22 ""
  "/usr/local/texlive/2015/texmf-dist/tex/latex/thmtools/thm-listof.sty" 1398201367 5161 edae3ec44ac9c50dfe783cbff8a6d9a5 ""
  "/usr/local/texlive/2015/texmf-dist/tex/latex/thmtools/thm-patch.sty" 1398201367 6787 b89093acd2433e5bac368cac1ba25714 ""
  "/usr/local/texlive/2015/texmf-dist/tex/latex/thmtools/thm-restate.sty" 1398201367 7823 fa7ea8de890c587ca62f9a2266b79131 ""
  "/usr/local/texlive/2015/texmf-dist/tex/latex/thmtools/thmtools.sty" 1398201367 1828 6ab763896aa9f08e1f5e8028e977eec1 ""
  "/usr/local/texlive/2015/texmf-dist/tex/latex/tools/enumerate.sty" 1428932888 3467 e23880ed1af32024be116b861a72d6e1 ""
  "/usr/local/texlive/2015/texmf-dist/tex/latex/url/url.sty" 1388531844 12796 8edb7d69a20b857904dd0ea757c14ec9 ""
  "/usr/local/texlive/2015/texmf-dist/tex/latex/xcolor/xcolor.sty" 1169481954 55224 a43bab84e0ac5e6efcaf9a98bde73a94 ""
  "/usr/local/texlive/2015/texmf-dist/web2c/texmf.cnf" 1428852030 31983 18aeec08f48baa3cf3508d538dd5f459 ""
  "/usr/local/texlive/2015/texmf-var/fonts/map/pdftex/updmap/pdftex.map" 1432479641 1764542 91654ba72bdb667e84ea24f076ae16d8 ""
  "/usr/local/texlive/2015/texmf-var/web2c/pdftex/pdflatex.fmt" 1432479681 3849859 39a7d258195bde2394e244961601fbc5 ""
  "/usr/local/texlive/2015/texmf.cnf" 1432479636 577 0d611272082f3cdb8e80e09a3c69cf07 ""
  "notes.aux" 1452547590 1290 58ff768559961134ad4933acbc4e245c ""
  "notes.ind" 1452547587 0 d41d8cd98f00b204e9800998ecf8427e "makeindex notes.idx"
  "notes.out" 1452547590 53 68c7ae2c82c7b55162988b77ece94864 ""
  "notes.sty" 1452547583 5638 d4aff2f0849ddd9490b57f7dff13925a ""
  "notes.tex" 1452547486 3313 794fc5918140ec5b02853e6ef166b44c ""
  "notes.toc" 1452547590 100 6939cc88edfab9c2b001cf76e0f3b15f ""
  (generated)
  "notes.pdf"
  "notes.toc"
  "notes.aux"
  "notes.log"
  "notes.out"
  "notes.idx"
