\relax 
\providecommand\hyper@newdestlabel[2]{}
\providecommand\HyperFirstAtBeginDocument{\AtBeginDocument}
\HyperFirstAtBeginDocument{\ifx\hyper@anchor\@undefined
\global\let\oldcontentsline\contentsline
\gdef\contentsline#1#2#3#4{\oldcontentsline{#1}{#2}{#3}}
\global\let\oldnewlabel\newlabel
\gdef\newlabel#1#2{\newlabelxx{#1}#2}
\gdef\newlabelxx#1#2#3#4#5#6{\oldnewlabel{#1}{{#2}{#3}}}
\AtEndDocument{\ifx\hyper@anchor\@undefined
\let\contentsline\oldcontentsline
\let\newlabel\oldnewlabel
\fi}
\fi}
\global\let\hyper@last\relax 
\gdef\HyperFirstAtBeginDocument#1{#1}
\providecommand\HyField@AuxAddToFields[1]{}
\providecommand\HyField@AuxAddToCoFields[2]{}
\select@language{english}
\@writefile{toc}{\select@language{english}}
\@writefile{lof}{\select@language{english}}
\@writefile{lot}{\select@language{english}}
\@writefile{toc}{\contentsline {section}{\numberline {1}Uniform Continuity}{1}{section.1}}
\newlabel{sec:Uniform Continuity}{{1}{1}{Uniform Continuity}{section.1}{}}
\newlabel{sec:Uniform Continuity@cref}{{[section][1][]1}{1}}
\@writefile{loe}{\contentsline {defn}{\numberline {1.1}Definition\thmtformatoptarg {Uniform Continuity}}{1}{defn.1.1}}
\newlabel{uniform continuity}{{1.1}{1}{Uniform Continuity}{defn.1.1}{}}
\newlabel{uniform continuity@cref}{{[defn][1][1]1.1}{1}}
\@writefile{loe}{\contentsline {exmp}{\numberline {1.1}Example}{1}{exmp.1.1}}
\@writefile{loe}{\contentsline {solution}{\numberline {\let \autodot \@empty }Solution}{1}{thmt@dummyctr.dummy.3}}
\@writefile{loe}{\contentsline {note}{\numberline {\let \autodot \@empty }Note}{1}{thmt@dummyctr.dummy.4}}
\@writefile{loe}{\contentsline {defn}{\numberline {1.2}Definition\thmtformatoptarg {sequential definition of not uniformly continuous}}{1}{defn.1.2}}
\newlabel{sequential definition of not uniformly continuous}{{1.2}{1}{sequential definition of not uniformly continuous}{defn.1.2}{}}
\newlabel{sequential definition of not uniformly continuous@cref}{{[defn][2][1]1.2}{1}}
\@writefile{loe}{\contentsline {exmp}{\numberline {1.2}Example}{1}{exmp.1.2}}
\@writefile{loe}{\contentsline {solution}{\numberline {\let \autodot \@empty }Solution}{1}{thmt@dummyctr.dummy.7}}
\@writefile{toc}{\contentsline {subsection}{\numberline {1.1}Big Theorem}{2}{subsection.1.1}}
\newlabel{sub:Big Theorem}{{1.1}{2}{Big Theorem}{subsection.1.1}{}}
\newlabel{sub:Big Theorem@cref}{{[subsection][1][1]1.1}{2}}
\@writefile{loe}{\contentsline {thrm}{\numberline {1.1}Theorem}{2}{thrm.1.1}}
\@writefile{toc}{\contentsline {section}{\numberline {2}Derivatives}{2}{section.2}}
\newlabel{sec:Derivatives}{{2}{2}{Derivatives}{section.2}{}}
\newlabel{sec:Derivatives@cref}{{[section][2][]2}{2}}
\newlabel{eqn:single variable derivative}{{2.1}{2}{Derivatives}{equation.2.1}{}}
\newlabel{eqn:single variable derivative@cref}{{[equation][1][2]2.1}{2}}
\newlabel{eqn:single variable derivative}{{2.2}{2}{Derivatives}{equation.2.2}{}}
\newlabel{eqn:single variable derivative@cref}{{[equation][2][2]2.2}{2}}
\@writefile{loe}{\contentsline {rem}{\numberline {2.1}Remark}{3}{rem.2.1}}
\@writefile{loe}{\contentsline {defn}{\numberline {2.1}Definition\thmtformatoptarg {Affine}}{3}{defn.2.1}}
\newlabel{affine}{{2.1}{3}{Affine}{defn.2.1}{}}
\newlabel{affine@cref}{{[defn][1][2]2.1}{3}}
\@writefile{loe}{\contentsline {notation}{\numberline {2.1}Notation\thmtformatoptarg {Remainder}}{3}{notation.2.1}}
\newlabel{remainder}{{2.1}{3}{Remainder}{notation.2.1}{}}
\newlabel{remainder@cref}{{[notation][1][2]2.1}{3}}
\@writefile{toc}{\contentsline {subsection}{\numberline {2.1}Derivative in $n$ dimensions}{3}{subsection.2.1}}
\newlabel{sub:Derivative in $n$ dimensions}{{2.1}{3}{Derivative in $n$ dimensions}{subsection.2.1}{}}
\newlabel{sub:Derivative in $n$ dimensions@cref}{{[subsection][1][2]2.1}{3}}
\@writefile{loe}{\contentsline {defn}{\numberline {2.2}Definition\thmtformatoptarg {Derivative in $R^n$}}{3}{defn.2.2}}
\newlabel{derivative}{{2.2}{3}{Derivative in $R^n$}{defn.2.2}{}}
\newlabel{derivative@cref}{{[defn][2][2]2.2}{3}}
\@writefile{loe}{\contentsline {notation}{\numberline {2.2}Notation}{3}{notation.2.2}}
\@writefile{toc}{\contentsline {subsection}{\numberline {2.2}Multivariable $\mathbb  R^n$ to $\mathbb  R$}{4}{subsection.2.2}}
\newlabel{sub:Multivariable $R^n$ to $R$}{{2.2}{4}{Multivariable $\mathbb R^n$ to $\mathbb R$}{subsection.2.2}{}}
\newlabel{sub:Multivariable $R^n$ to $R$@cref}{{[subsection][2][2]2.2}{4}}
\@writefile{loe}{\contentsline {defn}{\numberline {2.3}Definition\thmtformatoptarg {Graph}}{4}{defn.2.3}}
\newlabel{graph}{{2.3}{4}{Graph}{defn.2.3}{}}
\newlabel{graph@cref}{{[defn][3][2]2.3}{4}}
\@writefile{loe}{\contentsline {defn}{\numberline {2.4}Definition\thmtformatoptarg {$n$-Hyperplane}}{5}{defn.2.4}}
\newlabel{$n$-hyperplane}{{2.4}{5}{$n$-Hyperplane}{defn.2.4}{}}
\newlabel{$n$-hyperplane@cref}{{[defn][4][2]2.4}{5}}
\@writefile{loe}{\contentsline {defn}{\numberline {2.5}Definition\thmtformatoptarg {Differential}}{5}{defn.2.5}}
\@writefile{loe}{\contentsline {notation}{\numberline {2.3}Notation}{5}{notation.2.3}}
\@writefile{loe}{\contentsline {exmp}{\numberline {2.1}Example}{5}{exmp.2.1}}
\@writefile{loe}{\contentsline {solution}{\numberline {\let \autodot \@empty }Solution}{5}{thmt@dummyctr.dummy.19}}
\@writefile{loe}{\contentsline {thrm}{\numberline {2.1}Theorem}{6}{thrm.2.1}}
\@writefile{toc}{\contentsline {subsubsection}{Partial Derivatives}{6}{section*.2}}
\newlabel{subs:Partial Derivatives}{{2.2}{6}{Partial Derivatives}{section*.2}{}}
\newlabel{subs:Partial Derivatives@cref}{{[subsection][2][2]2.2}{6}}
\@writefile{loe}{\contentsline {defn}{\numberline {2.6}Definition\thmtformatoptarg {Partial Derivative}}{6}{defn.2.6}}
\newlabel{partial derivative}{{2.6}{6}{Partial Derivative}{defn.2.6}{}}
\newlabel{partial derivative@cref}{{[defn][6][2]2.6}{6}}
\@writefile{loe}{\contentsline {exmp}{\numberline {2.2}Example}{6}{exmp.2.2}}
\@writefile{loe}{\contentsline {thrm}{\numberline {2.2}Theorem}{6}{thrm.2.2}}
\@writefile{loe}{\contentsline {notation}{\numberline {2.4}Notation}{7}{notation.2.4}}
\@writefile{loe}{\contentsline {thrm}{\numberline {2.3}Theorem\thmtformatoptarg {Differentiable with partials}}{7}{thrm.2.3}}
\newlabel{differentiable with partials}{{2.3}{7}{Differentiable with partials}{thrm.2.3}{}}
\newlabel{differentiable with partials@cref}{{[thrm][3][2]2.3}{7}}
\@writefile{loe}{\contentsline {defn}{\numberline {2.7}Definition\thmtformatoptarg {$C^1$}}{7}{defn.2.7}}
\newlabel{$C^1$}{{2.7}{7}{$C^1$}{defn.2.7}{}}
\newlabel{$C^1$@cref}{{[defn][7][2]2.7}{7}}
\@writefile{toc}{\contentsline {subsubsection}{Directional Derivatives}{8}{section*.3}}
\newlabel{subs:Directional Derivatives}{{2.2}{8}{Directional Derivatives}{section*.3}{}}
\newlabel{subs:Directional Derivatives@cref}{{[subsection][2][2]2.2}{8}}
\@writefile{loe}{\contentsline {defn}{\numberline {2.8}Definition\thmtformatoptarg {Directional Derivatives}}{8}{defn.2.8}}
\newlabel{directional derivatives}{{2.8}{8}{Directional Derivatives}{defn.2.8}{}}
\newlabel{directional derivatives@cref}{{[defn][8][2]2.8}{8}}
\@writefile{loe}{\contentsline {thrm}{\numberline {2.4}Theorem}{8}{thrm.2.4}}
\@writefile{loe}{\contentsline {exmp}{\numberline {2.3}Example}{8}{exmp.2.3}}
\@writefile{loe}{\contentsline {solution}{\numberline {\let \autodot \@empty }Solution}{8}{thmt@dummyctr.dummy.30}}
\@writefile{toc}{\contentsline {subsection}{\numberline {2.3}Derivatives of functions from $\mathbb  R^n \rightarrow \mathbb  R^m$}{8}{subsection.2.3}}
\newlabel{sub:Derivatives of functions from $R^n$ to $R^m$}{{2.3}{8}{Derivatives of functions from $\mathbb R^n \rightarrow \mathbb R^m$}{subsection.2.3}{}}
\newlabel{sub:Derivatives of functions from $R^n$ to $R^m$@cref}{{[subsection][3][2]2.3}{8}}
\@writefile{loe}{\contentsline {defn}{\numberline {2.9}Definition\thmtformatoptarg {Approximated}}{8}{defn.2.9}}
\@writefile{loe}{\contentsline {defn}{\numberline {2.10}Definition\thmtformatoptarg {Differentiable}}{8}{defn.2.10}}
\newlabel{Differentiable}{{2.10}{8}{Differentiable}{defn.2.10}{}}
\newlabel{Differentiable@cref}{{[defn][10][2]2.10}{8}}
\@writefile{loe}{\contentsline {notation}{\numberline {2.5}Notation}{8}{notation.2.5}}
\@writefile{loe}{\contentsline {exmp}{\numberline {2.4}Example}{8}{exmp.2.4}}
\@writefile{loe}{\contentsline {solution}{\numberline {\let \autodot \@empty }Solution}{9}{thmt@dummyctr.dummy.35}}
\@writefile{loe}{\contentsline {thrm}{\numberline {2.5}Theorem}{9}{thrm.2.5}}
\@writefile{loe}{\contentsline {exmp}{\numberline {2.5}Example}{9}{exmp.2.5}}
\@writefile{loe}{\contentsline {solution}{\numberline {\let \autodot \@empty }Solution}{9}{thmt@dummyctr.dummy.38}}
\@writefile{loe}{\contentsline {exmp}{\numberline {2.6}Example}{9}{exmp.2.6}}
\@writefile{loe}{\contentsline {solution}{\numberline {\let \autodot \@empty }Solution}{10}{thmt@dummyctr.dummy.40}}
\@writefile{toc}{\contentsline {subsubsection}{Chain Rule}{10}{section*.4}}
\newlabel{subs:Chain Rule}{{2.3}{10}{Chain Rule}{section*.4}{}}
\newlabel{subs:Chain Rule@cref}{{[subsection][3][2]2.3}{10}}
\@writefile{loe}{\contentsline {thrm}{\numberline {2.6}Theorem\thmtformatoptarg {Chain Rule}}{10}{thrm.2.6}}
\newlabel{chain rule}{{2.6}{10}{Chain Rule}{thrm.2.6}{}}
\newlabel{chain rule@cref}{{[thrm][6][2]2.6}{10}}
\@writefile{toc}{\contentsline {subsubsection}{Intuition for the Derivative}{10}{section*.5}}
\newlabel{subs:Intuition for the Derivative}{{2.3}{10}{Intuition for the Derivative}{section*.5}{}}
\newlabel{subs:Intuition for the Derivative@cref}{{[subsection][3][2]2.3}{10}}
\@writefile{toc}{\contentsline {subsection}{\numberline {2.4}Mean Value Theorem}{10}{subsection.2.4}}
\newlabel{sub:Mean Value Theorem}{{2.4}{10}{Mean Value Theorem}{subsection.2.4}{}}
\newlabel{sub:Mean Value Theorem@cref}{{[subsection][4][2]2.4}{10}}
\@writefile{loe}{\contentsline {thrm}{\numberline {2.7}Theorem}{10}{thrm.2.7}}
\@writefile{loe}{\contentsline {thrm}{\numberline {2.8}Theorem\thmtformatoptarg {$\mathbb  R^n \rightarrow \mathbb  R$ MVT}}{11}{thrm.2.8}}
\newlabel{MVT from $R^n$ to $R$}{{2.8}{11}{$\nr ^n \rightarrow \nr $ MVT}{thrm.2.8}{}}
\newlabel{MVT from $R^n$ to $R$@cref}{{[thrm][8][2]2.8}{11}}
\@writefile{loe}{\contentsline {cor}{\numberline {2.1}Corollary}{11}{cor.2.1}}
\@writefile{loe}{\contentsline {cor}{\numberline {2.2}Corollary}{11}{cor.2.2}}
\@writefile{loe}{\contentsline {thrm}{\numberline {2.9}Theorem}{11}{thrm.2.9}}
\@writefile{toc}{\contentsline {subsection}{\numberline {2.5}Higher Order Derivatives}{11}{subsection.2.5}}
\newlabel{sub:Higher Order Derivatives}{{2.5}{11}{Higher Order Derivatives}{subsection.2.5}{}}
\newlabel{sub:Higher Order Derivatives@cref}{{[subsection][5][2]2.5}{11}}
\@writefile{loe}{\contentsline {exmp}{\numberline {2.7}Example}{12}{exmp.2.7}}
\@writefile{loe}{\contentsline {thrm}{\numberline {2.10}Theorem\thmtformatoptarg {Clairaut's theorem}}{12}{thrm.2.10}}
\newlabel{clairaut's theorem}{{2.10}{12}{Clairaut's theorem}{thrm.2.10}{}}
\newlabel{clairaut's theorem@cref}{{[thrm][10][2]2.10}{12}}
\@writefile{loe}{\contentsline {defn}{\numberline {2.11}Definition}{12}{defn.2.11}}
\@writefile{toc}{\contentsline {subsubsection}{3rd and Higher Order Partials}{12}{section*.6}}
\newlabel{subs:3rd and Higher Order Partials}{{2.5}{12}{3rd and Higher Order Partials}{section*.6}{}}
\newlabel{subs:3rd and Higher Order Partials@cref}{{[subsection][5][2]2.5}{12}}
\@writefile{loe}{\contentsline {defn}{\numberline {2.12}Definition}{12}{defn.2.12}}
\@writefile{loe}{\contentsline {note}{\numberline {\let \autodot \@empty }Note}{12}{thmt@dummyctr.dummy.51}}
\@writefile{loe}{\contentsline {thrm}{\numberline {2.11}Theorem\thmtformatoptarg {Generalized Clairaut's Theorem}}{12}{thrm.2.11}}
\newlabel{Generalized Clairaut's Theorem}{{2.11}{12}{Generalized Clairaut's Theorem}{thrm.2.11}{}}
\newlabel{Generalized Clairaut's Theorem@cref}{{[thrm][11][2]2.11}{12}}
\@writefile{toc}{\contentsline {subsubsection}{Multi-index Notation}{12}{section*.7}}
\newlabel{subs:Multi-index Notation}{{2.5}{12}{Multi-index Notation}{section*.7}{}}
\newlabel{subs:Multi-index Notation@cref}{{[subsection][5][2]2.5}{12}}
\@writefile{toc}{\contentsline {subsection}{\numberline {2.6}Taylor Series}{13}{subsection.2.6}}
\newlabel{sub:Taylor Series}{{2.6}{13}{Taylor Series}{subsection.2.6}{}}
\newlabel{sub:Taylor Series@cref}{{[subsection][6][2]2.6}{13}}
\@writefile{loe}{\contentsline {defn}{\numberline {2.13}Definition}{13}{defn.2.13}}
\@writefile{loe}{\contentsline {exmp}{\numberline {2.8}Example}{13}{exmp.2.8}}
\@writefile{loe}{\contentsline {note}{\numberline {\let \autodot \@empty }Note}{13}{thmt@dummyctr.dummy.55}}
\@writefile{loe}{\contentsline {defn}{\numberline {2.14}Definition\thmtformatoptarg {Hessian}}{13}{defn.2.14}}
\newlabel{Hessian}{{2.14}{13}{Hessian}{defn.2.14}{}}
\newlabel{Hessian@cref}{{[defn][14][2]2.14}{13}}
\@writefile{toc}{\contentsline {subsection}{\numberline {2.7}Optimization}{14}{subsection.2.7}}
\newlabel{sub:Optimization}{{2.7}{14}{Optimization}{subsection.2.7}{}}
\newlabel{sub:Optimization@cref}{{[subsection][7][2]2.7}{14}}
\@writefile{loe}{\contentsline {defn}{\numberline {2.15}Definition\thmtformatoptarg {Local Maximum/Minimum}}{14}{defn.2.15}}
\newlabel{local maximums/minimums}{{2.15}{14}{Local Maximum/Minimum}{defn.2.15}{}}
\newlabel{local maximums/minimums@cref}{{[defn][15][2]2.15}{14}}
\@writefile{loe}{\contentsline {defn}{\numberline {2.16}Definition\thmtformatoptarg {Critical Point}}{14}{defn.2.16}}
\newlabel{Critical Point}{{2.16}{14}{Critical Point}{defn.2.16}{}}
\newlabel{Critical Point@cref}{{[defn][16][2]2.16}{14}}
\@writefile{loe}{\contentsline {prop}{\numberline {2.1}Proposition}{14}{prop.2.1}}
\@writefile{loe}{\contentsline {thrm}{\numberline {2.12}Theorem\thmtformatoptarg {Second Derivative Test}}{14}{thrm.2.12}}
\newlabel{second derivative}{{2.12}{14}{Second Derivative Test}{thrm.2.12}{}}
\newlabel{second derivative@cref}{{[thrm][12][2]2.12}{14}}
\@writefile{loe}{\contentsline {exmp}{\numberline {2.9}Example}{14}{exmp.2.9}}
\@writefile{loe}{\contentsline {thrm}{\numberline {2.13}Theorem}{14}{thrm.2.13}}
\@writefile{toc}{\contentsline {subsubsection}{Lagrange Multipliers}{15}{section*.8}}
\newlabel{subs:Lagrange Multipliers}{{2.7}{15}{Lagrange Multipliers}{section*.8}{}}
\newlabel{subs:Lagrange Multipliers@cref}{{[subsection][7][2]2.7}{15}}
\@writefile{loe}{\contentsline {thrm}{\numberline {2.14}Theorem\thmtformatoptarg {Lagrange Multipliers}}{15}{thrm.2.14}}
\newlabel{lagrange multipliers}{{2.14}{15}{Lagrange Multipliers}{thrm.2.14}{}}
\newlabel{lagrange multipliers@cref}{{[thrm][14][2]2.14}{15}}
\@writefile{loe}{\contentsline {exmp}{\numberline {2.10}Example}{15}{exmp.2.10}}
\@writefile{loe}{\contentsline {exmp}{\numberline {2.11}Example}{15}{exmp.2.11}}
\@writefile{loe}{\contentsline {solution}{\numberline {\let \autodot \@empty }Solution}{15}{thmt@dummyctr.dummy.66}}
\@writefile{loe}{\contentsline {exmp}{\numberline {2.12}Example}{16}{exmp.2.12}}
\@writefile{loe}{\contentsline {solution}{\numberline {\let \autodot \@empty }Solution}{16}{thmt@dummyctr.dummy.68}}
\@writefile{loe}{\contentsline {exmp}{\numberline {2.13}Example}{16}{exmp.2.13}}
\@writefile{loe}{\contentsline {solution}{\numberline {\let \autodot \@empty }Solution}{16}{thmt@dummyctr.dummy.70}}
\@writefile{toc}{\contentsline {subsection}{\numberline {2.8}Multivariate Inverse Theorem}{17}{subsection.2.8}}
\newlabel{sub:multivariate inverse theorem}{{2.8}{17}{Multivariate Inverse Theorem}{subsection.2.8}{}}
\newlabel{sub:multivariate inverse theorem@cref}{{[subsection][8][2]2.8}{17}}
\@writefile{loe}{\contentsline {defn}{\numberline {2.17}Definition\thmtformatoptarg {Zero Locus}}{17}{defn.2.17}}
\@writefile{loe}{\contentsline {thrm}{\numberline {2.15}Theorem\thmtformatoptarg {Implicict Function Theorem}}{17}{thrm.2.15}}
\newlabel{implicit function theorem}{{2.15}{17}{Implicict Function Theorem}{thrm.2.15}{}}
\newlabel{implicit function theorem@cref}{{[thrm][15][2]2.15}{17}}
\@writefile{loe}{\contentsline {exmp}{\numberline {2.14}Example}{18}{exmp.2.14}}
\@writefile{loe}{\contentsline {solution}{\numberline {\let \autodot \@empty }Solution}{18}{thmt@dummyctr.dummy.74}}
\@writefile{loe}{\contentsline {thrm}{\numberline {2.16}Theorem\thmtformatoptarg {Generalized \nameref  {implicit function theorem}}}{18}{thrm.2.16}}
\newlabel{generalized implicit functoin theorem}{{2.16}{18}{Generalized \nameref {implicit function theorem}}{thrm.2.16}{}}
\newlabel{generalized implicit functoin theorem@cref}{{[thrm][16][2]2.16}{18}}
